{
    "version": 1,
    "disable_existing_loggers": true,
    "formatters": {
        "simple": {
            "format": "%(levelname)s %(message)s"
        }
    },
    "handlers": {
        "console": {
            "level": "DEBUG",
            "class": "logging.StreamHandler",
            "formatter": "simple"
        },
        "file_events": {
            "level": "INFO",
            "class": "logging.handlers.TimedRotatingFileHandler",
            "filename": "logs/Event.log",
            "when": "D",
            "interval": 1
        },
        "debug_events": {
            "level": "DEBUG",
            "class": "logging.handlers.RotatingFileHandler",
            "filename": "logs/Logs.log",
            "maxBytes": 5242880,
            "backupCount": 5
        }
    },
    "loggers": {
        "events": {
            "handlers": [
                "file_events"
            ],
            "level": "INFO",
            "propagate": true
        },
        "debug": {
            "handlers": [
                "console",
                "debug_events"
            ],
            "level": "DEBUG",
            "propagate": true
        }
    }
}